^C:\USERS\NHS40227\DESKTOP\MSPROJECT\MSPROJECT\CAMERA.CPP
/c /Zi /nologo /W3 /WX- /O2 /Oi /Oy- /GL /D WIN32 /D NDEBUG /D _WINDOWS /D _UNICODE /D UNICODE /Gm- /EHsc /MT /GS /Gy /fp:precise /Zc:wchar_t /Zc:forScope /Fo"Release\\" /Fd"Release\vc100.pdb" /Gd /TP /analyze- /errorReport:prompt C:\USERS\NHS40227\DESKTOP\MSPROJECT\MSPROJECT\CAMERA.CPP
^C:\USERS\NHS40227\DESKTOP\MSPROJECT\MSPROJECT\JOYSTICK.CPP
/c /Zi /nologo /W3 /WX- /O2 /Oi /Oy- /GL /D WIN32 /D NDEBUG /D _WINDOWS /D _UNICODE /D UNICODE /Gm- /EHsc /MT /GS /Gy /fp:precise /Zc:wchar_t /Zc:forScope /Fo"Release\\" /Fd"Release\vc100.pdb" /Gd /TP /analyze- /errorReport:prompt C:\USERS\NHS40227\DESKTOP\MSPROJECT\MSPROJECT\JOYSTICK.CPP
^C:\USERS\NHS40227\DESKTOP\MSPROJECT\MSPROJECT\MENU.CPP
/c /Zi /nologo /W3 /WX- /O2 /Oi /Oy- /GL /D WIN32 /D NDEBUG /D _WINDOWS /D _UNICODE /D UNICODE /Gm- /EHsc /MT /GS /Gy /fp:precise /Zc:wchar_t /Zc:forScope /Fo"Release\\" /Fd"Release\vc100.pdb" /Gd /TP /analyze- /errorReport:prompt C:\USERS\NHS40227\DESKTOP\MSPROJECT\MSPROJECT\MENU.CPP
^C:\USERS\NHS40227\DESKTOP\MSPROJECT\MSPROJECT\STRTEXTURE.CPP
/c /Zi /nologo /W3 /WX- /O2 /Oi /Oy- /GL /D WIN32 /D NDEBUG /D _WINDOWS /D _UNICODE /D UNICODE /Gm- /EHsc /MT /GS /Gy /fp:precise /Zc:wchar_t /Zc:forScope /Fo"Release\\" /Fd"Release\vc100.pdb" /Gd /TP /analyze- /errorReport:prompt C:\USERS\NHS40227\DESKTOP\MSPROJECT\MSPROJECT\STRTEXTURE.CPP
^C:\USERS\NHS40227\DESKTOP\MSPROJECT\MSPROJECT\KEYBOARD.CPP
/c /Zi /nologo /W3 /WX- /O2 /Oi /Oy- /GL /D WIN32 /D NDEBUG /D _WINDOWS /D _UNICODE /D UNICODE /Gm- /EHsc /MT /GS /Gy /fp:precise /Zc:wchar_t /Zc:forScope /Fo"Release\\" /Fd"Release\vc100.pdb" /Gd /TP /analyze- /errorReport:prompt C:\USERS\NHS40227\DESKTOP\MSPROJECT\MSPROJECT\KEYBOARD.CPP
^C:\USERS\NHS40227\DESKTOP\MSPROJECT\MSPROJECT\MAIN.CPP
/c /Zi /nologo /W3 /WX- /O2 /Oi /Oy- /GL /D WIN32 /D NDEBUG /D _WINDOWS /D _UNICODE /D UNICODE /Gm- /EHsc /MT /GS /Gy /fp:precise /Zc:wchar_t /Zc:forScope /Fo"Release\\" /Fd"Release\vc100.pdb" /Gd /TP /analyze- /errorReport:prompt C:\USERS\NHS40227\DESKTOP\MSPROJECT\MSPROJECT\MAIN.CPP
^C:\USERS\NHS40227\DESKTOP\MSPROJECT\MSPROJECT\SCENE.CPP
/c /Zi /nologo /W3 /WX- /O2 /Oi /Oy- /GL /D WIN32 /D NDEBUG /D _WINDOWS /D _UNICODE /D UNICODE /Gm- /EHsc /MT /GS /Gy /fp:precise /Zc:wchar_t /Zc:forScope /Fo"Release\\" /Fd"Release\vc100.pdb" /Gd /TP /analyze- /errorReport:prompt C:\USERS\NHS40227\DESKTOP\MSPROJECT\MSPROJECT\SCENE.CPP
^C:\USERS\NHS40227\DESKTOP\MSPROJECT\MSPROJECT\SCREENSPRITE.CPP
/c /Zi /nologo /W3 /WX- /O2 /Oi /Oy- /GL /D WIN32 /D NDEBUG /D _WINDOWS /D _UNICODE /D UNICODE /Gm- /EHsc /MT /GS /Gy /fp:precise /Zc:wchar_t /Zc:forScope /Fo"Release\\" /Fd"Release\vc100.pdb" /Gd /TP /analyze- /errorReport:prompt C:\USERS\NHS40227\DESKTOP\MSPROJECT\MSPROJECT\SCREENSPRITE.CPP
^C:\USERS\NHS40227\DESKTOP\MSPROJECT\MSPROJECT\STRSPRITE.CPP
/c /Zi /nologo /W3 /WX- /O2 /Oi /Oy- /GL /D WIN32 /D NDEBUG /D _WINDOWS /D _UNICODE /D UNICODE /Gm- /EHsc /MT /GS /Gy /fp:precise /Zc:wchar_t /Zc:forScope /Fo"Release\\" /Fd"Release\vc100.pdb" /Gd /TP /analyze- /errorReport:prompt C:\USERS\NHS40227\DESKTOP\MSPROJECT\MSPROJECT\STRSPRITE.CPP
^C:\USERS\NHS40227\DESKTOP\MSPROJECT\MSPROJECT\TRAIN.CPP
/c /Zi /nologo /W3 /WX- /O2 /Oi /Oy- /GL /D WIN32 /D NDEBUG /D _WINDOWS /D _UNICODE /D UNICODE /Gm- /EHsc /MT /GS /Gy /fp:precise /Zc:wchar_t /Zc:forScope /Fo"Release\\" /Fd"Release\vc100.pdb" /Gd /TP /analyze- /errorReport:prompt C:\USERS\NHS40227\DESKTOP\MSPROJECT\MSPROJECT\TRAIN.CPP
^C:\USERS\NHS40227\DESKTOP\MSPROJECT\MSPROJECT\GRID.CPP
/c /Zi /nologo /W3 /WX- /O2 /Oi /Oy- /GL /D WIN32 /D NDEBUG /D _WINDOWS /D _UNICODE /D UNICODE /Gm- /EHsc /MT /GS /Gy /fp:precise /Zc:wchar_t /Zc:forScope /Fo"Release\\" /Fd"Release\vc100.pdb" /Gd /TP /analyze- /errorReport:prompt C:\USERS\NHS40227\DESKTOP\MSPROJECT\MSPROJECT\GRID.CPP
^C:\USERS\NHS40227\DESKTOP\MSPROJECT\MSPROJECT\POLYGON.CPP
/c /Zi /nologo /W3 /WX- /O2 /Oi /Oy- /GL /D WIN32 /D NDEBUG /D _WINDOWS /D _UNICODE /D UNICODE /Gm- /EHsc /MT /GS /Gy /fp:precise /Zc:wchar_t /Zc:forScope /Fo"Release\\" /Fd"Release\vc100.pdb" /Gd /TP /analyze- /errorReport:prompt C:\USERS\NHS40227\DESKTOP\MSPROJECT\MSPROJECT\POLYGON.CPP
^C:\USERS\NHS40227\DESKTOP\MSPROJECT\MSPROJECT\APP.CPP
/c /Zi /nologo /W3 /WX- /O2 /Oi /Oy- /GL /D WIN32 /D NDEBUG /D _WINDOWS /D _UNICODE /D UNICODE /Gm- /EHsc /MT /GS /Gy /fp:precise /Zc:wchar_t /Zc:forScope /Fo"Release\\" /Fd"Release\vc100.pdb" /Gd /TP /analyze- /errorReport:prompt C:\USERS\NHS40227\DESKTOP\MSPROJECT\MSPROJECT\APP.CPP
^C:\USERS\NHS40227\DESKTOP\MSPROJECT\MSPROJECT\METER.CPP
/c /Zi /nologo /W3 /WX- /O2 /Oi /Oy- /GL /D WIN32 /D NDEBUG /D _WINDOWS /D _UNICODE /D UNICODE /Gm- /EHsc /MT /GS /Gy /fp:precise /Zc:wchar_t /Zc:forScope /Fo"Release\\" /Fd"Release\vc100.pdb" /Gd /TP /analyze- /errorReport:prompt C:\USERS\NHS40227\DESKTOP\MSPROJECT\MSPROJECT\METER.CPP
^C:\USERS\NHS40227\DESKTOP\MSPROJECT\MSPROJECT\LINEPOLYGON.CPP
/c /Zi /nologo /W3 /WX- /O2 /Oi /Oy- /GL /D WIN32 /D NDEBUG /D _WINDOWS /D _UNICODE /D UNICODE /Gm- /EHsc /MT /GS /Gy /fp:precise /Zc:wchar_t /Zc:forScope /Fo"Release\\" /Fd"Release\vc100.pdb" /Gd /TP /analyze- /errorReport:prompt C:\USERS\NHS40227\DESKTOP\MSPROJECT\MSPROJECT\LINEPOLYGON.CPP
^C:\USERS\NHS40227\DESKTOP\MSPROJECT\MSPROJECT\MEDIATOR.CPP
/c /Zi /nologo /W3 /WX- /O2 /Oi /Oy- /GL /D WIN32 /D NDEBUG /D _WINDOWS /D _UNICODE /D UNICODE /Gm- /EHsc /MT /GS /Gy /fp:precise /Zc:wchar_t /Zc:forScope /Fo"Release\\" /Fd"Release\vc100.pdb" /Gd /TP /analyze- /errorReport:prompt C:\USERS\NHS40227\DESKTOP\MSPROJECT\MSPROJECT\MEDIATOR.CPP
^C:\USERS\NHS40227\DESKTOP\MSPROJECT\MSPROJECT\MINIGAME.CPP
/c /Zi /nologo /W3 /WX- /O2 /Oi /Oy- /GL /D WIN32 /D NDEBUG /D _WINDOWS /D _UNICODE /D UNICODE /Gm- /EHsc /MT /GS /Gy /fp:precise /Zc:wchar_t /Zc:forScope /Fo"Release\\" /Fd"Release\vc100.pdb" /Gd /TP /analyze- /errorReport:prompt C:\USERS\NHS40227\DESKTOP\MSPROJECT\MSPROJECT\MINIGAME.CPP
^C:\USERS\NHS40227\DESKTOP\MSPROJECT\MSPROJECT\SPRITE.CPP
/c /Zi /nologo /W3 /WX- /O2 /Oi /Oy- /GL /D WIN32 /D NDEBUG /D _WINDOWS /D _UNICODE /D UNICODE /Gm- /EHsc /MT /GS /Gy /fp:precise /Zc:wchar_t /Zc:forScope /Fo"Release\\" /Fd"Release\vc100.pdb" /Gd /TP /analyze- /errorReport:prompt C:\USERS\NHS40227\DESKTOP\MSPROJECT\MSPROJECT\SPRITE.CPP
^C:\USERS\NHS40227\DESKTOP\MSPROJECT\MSPROJECT\SWORDSMITH_EASY.CPP
/c /Zi /nologo /W3 /WX- /O2 /Oi /Oy- /GL /D WIN32 /D NDEBUG /D _WINDOWS /D _UNICODE /D UNICODE /Gm- /EHsc /MT /GS /Gy /fp:precise /Zc:wchar_t /Zc:forScope /Fo"Release\\" /Fd"Release\vc100.pdb" /Gd /TP /analyze- /errorReport:prompt C:\USERS\NHS40227\DESKTOP\MSPROJECT\MSPROJECT\SWORDSMITH_EASY.CPP
^C:\USERS\NHS40227\DESKTOP\MSPROJECT\MSPROJECT\TEXTBOX.CPP
/c /Zi /nologo /W3 /WX- /O2 /Oi /Oy- /GL /D WIN32 /D NDEBUG /D _WINDOWS /D _UNICODE /D UNICODE /Gm- /EHsc /MT /GS /Gy /fp:precise /Zc:wchar_t /Zc:forScope /Fo"Release\\" /Fd"Release\vc100.pdb" /Gd /TP /analyze- /errorReport:prompt C:\USERS\NHS40227\DESKTOP\MSPROJECT\MSPROJECT\TEXTBOX.CPP
^C:\USERS\NHS40227\DESKTOP\MSPROJECT\MSPROJECT\TITLESCENE.CPP
/c /Zi /nologo /W3 /WX- /O2 /Oi /Oy- /GL /D WIN32 /D NDEBUG /D _WINDOWS /D _UNICODE /D UNICODE /Gm- /EHsc /MT /GS /Gy /fp:precise /Zc:wchar_t /Zc:forScope /Fo"Release\\" /Fd"Release\vc100.pdb" /Gd /TP /analyze- /errorReport:prompt C:\USERS\NHS40227\DESKTOP\MSPROJECT\MSPROJECT\TITLESCENE.CPP
^C:\USERS\NHS40227\DESKTOP\MSPROJECT\MSPROJECT\TRAINDRIVER_EASY.CPP
/c /Zi /nologo /W3 /WX- /O2 /Oi /Oy- /GL /D WIN32 /D NDEBUG /D _WINDOWS /D _UNICODE /D UNICODE /Gm- /EHsc /MT /GS /Gy /fp:precise /Zc:wchar_t /Zc:forScope /Fo"Release\\" /Fd"Release\vc100.pdb" /Gd /TP /analyze- /errorReport:prompt C:\USERS\NHS40227\DESKTOP\MSPROJECT\MSPROJECT\TRAINDRIVER_EASY.CPP
^C:\USERS\NHS40227\DESKTOP\MSPROJECT\MSPROJECT\UNIT.CPP
/c /Zi /nologo /W3 /WX- /O2 /Oi /Oy- /GL /D WIN32 /D NDEBUG /D _WINDOWS /D _UNICODE /D UNICODE /Gm- /EHsc /MT /GS /Gy /fp:precise /Zc:wchar_t /Zc:forScope /Fo"Release\\" /Fd"Release\vc100.pdb" /Gd /TP /analyze- /errorReport:prompt C:\USERS\NHS40227\DESKTOP\MSPROJECT\MSPROJECT\UNIT.CPP
^C:\USERS\NHS40227\DESKTOP\MSPROJECT\MSPROJECT\BALLOON.CPP
/c /Zi /nologo /W3 /WX- /O2 /Oi /Oy- /GL /D WIN32 /D NDEBUG /D _WINDOWS /D _UNICODE /D UNICODE /Gm- /EHsc /MT /GS /Gy /fp:precise /Zc:wchar_t /Zc:forScope /Fo"Release\\" /Fd"Release\vc100.pdb" /Gd /TP /analyze- /errorReport:prompt C:\USERS\NHS40227\DESKTOP\MSPROJECT\MSPROJECT\BALLOON.CPP
^C:\USERS\NHS40227\DESKTOP\MSPROJECT\MSPROJECT\ENEMY.CPP
/c /Zi /nologo /W3 /WX- /O2 /Oi /Oy- /GL /D WIN32 /D NDEBUG /D _WINDOWS /D _UNICODE /D UNICODE /Gm- /EHsc /MT /GS /Gy /fp:precise /Zc:wchar_t /Zc:forScope /Fo"Release\\" /Fd"Release\vc100.pdb" /Gd /TP /analyze- /errorReport:prompt C:\USERS\NHS40227\DESKTOP\MSPROJECT\MSPROJECT\ENEMY.CPP
^C:\USERS\NHS40227\DESKTOP\MSPROJECT\MSPROJECT\MINIGAMEMANAGER.CPP
/c /Zi /nologo /W3 /WX- /O2 /Oi /Oy- /GL /D WIN32 /D NDEBUG /D _WINDOWS /D _UNICODE /D UNICODE /Gm- /EHsc /MT /GS /Gy /fp:precise /Zc:wchar_t /Zc:forScope /Fo"Release\\" /Fd"Release\vc100.pdb" /Gd /TP /analyze- /errorReport:prompt C:\USERS\NHS40227\DESKTOP\MSPROJECT\MSPROJECT\MINIGAMEMANAGER.CPP
^C:\USERS\NHS40227\DESKTOP\MSPROJECT\MSPROJECT\PILOT_EASY.CPP
/c /Zi /nologo /W3 /WX- /O2 /Oi /Oy- /GL /D WIN32 /D NDEBUG /D _WINDOWS /D _UNICODE /D UNICODE /Gm- /EHsc /MT /GS /Gy /fp:precise /Zc:wchar_t /Zc:forScope /Fo"Release\\" /Fd"Release\vc100.pdb" /Gd /TP /analyze- /errorReport:prompt C:\USERS\NHS40227\DESKTOP\MSPROJECT\MSPROJECT\PILOT_EASY.CPP
^C:\USERS\NHS40227\DESKTOP\MSPROJECT\MSPROJECT\PLAYER.CPP
/c /Zi /nologo /W3 /WX- /O2 /Oi /Oy- /GL /D WIN32 /D NDEBUG /D _WINDOWS /D _UNICODE /D UNICODE /Gm- /EHsc /MT /GS /Gy /fp:precise /Zc:wchar_t /Zc:forScope /Fo"Release\\" /Fd"Release\vc100.pdb" /Gd /TP /analyze- /errorReport:prompt C:\USERS\NHS40227\DESKTOP\MSPROJECT\MSPROJECT\PLAYER.CPP
^C:\USERS\NHS40227\DESKTOP\MSPROJECT\MSPROJECT\GAMESCENE.CPP
/c /Zi /nologo /W3 /WX- /O2 /Oi /Oy- /GL /D WIN32 /D NDEBUG /D _WINDOWS /D _UNICODE /D UNICODE /Gm- /EHsc /MT /GS /Gy /fp:precise /Zc:wchar_t /Zc:forScope /Fo"Release\\" /Fd"Release\vc100.pdb" /Gd /TP /analyze- /errorReport:prompt C:\USERS\NHS40227\DESKTOP\MSPROJECT\MSPROJECT\GAMESCENE.CPP
^C:\USERS\NHS40227\DESKTOP\MSPROJECT\MSPROJECT\MAP.CPP
/c /Zi /nologo /W3 /WX- /O2 /Oi /Oy- /GL /D WIN32 /D NDEBUG /D _WINDOWS /D _UNICODE /D UNICODE /Gm- /EHsc /MT /GS /Gy /fp:precise /Zc:wchar_t /Zc:forScope /Fo"Release\\" /Fd"Release\vc100.pdb" /Gd /TP /analyze- /errorReport:prompt C:\USERS\NHS40227\DESKTOP\MSPROJECT\MSPROJECT\MAP.CPP
^C:\USERS\NHS40227\DESKTOP\MSPROJECT\MSPROJECT\MSAPP.CPP
/c /Zi /nologo /W3 /WX- /O2 /Oi /Oy- /GL /D WIN32 /D NDEBUG /D _WINDOWS /D _UNICODE /D UNICODE /Gm- /EHsc /MT /GS /Gy /fp:precise /Zc:wchar_t /Zc:forScope /Fo"Release\\" /Fd"Release\vc100.pdb" /Gd /TP /analyze- /errorReport:prompt C:\USERS\NHS40227\DESKTOP\MSPROJECT\MSPROJECT\MSAPP.CPP
^C:\USERS\NHS40227\DESKTOP\MSPROJECT\MSPROJECT\UNITMANAGER.CPP
/c /Zi /nologo /W3 /WX- /O2 /Oi /Oy- /GL /D WIN32 /D NDEBUG /D _WINDOWS /D _UNICODE /D UNICODE /Gm- /EHsc /MT /GS /Gy /fp:precise /Zc:wchar_t /Zc:forScope /Fo"Release\\" /Fd"Release\vc100.pdb" /Gd /TP /analyze- /errorReport:prompt C:\USERS\NHS40227\DESKTOP\MSPROJECT\MSPROJECT\UNITMANAGER.CPP
