^C:\USERS\NHS40227\DESKTOP\MSPROJECT\MSPROJECT\RELEASE\APP.OBJ|C:\USERS\NHS40227\DESKTOP\MSPROJECT\MSPROJECT\RELEASE\BALLOON.OBJ|C:\USERS\NHS40227\DESKTOP\MSPROJECT\MSPROJECT\RELEASE\CAMERA.OBJ|C:\USERS\NHS40227\DESKTOP\MSPROJECT\MSPROJECT\RELEASE\ENEMY.OBJ|C:\USERS\NHS40227\DESKTOP\MSPROJECT\MSPROJECT\RELEASE\GAMESCENE.OBJ|C:\USERS\NHS40227\DESKTOP\MSPROJECT\MSPROJECT\RELEASE\GRID.OBJ|C:\USERS\NHS40227\DESKTOP\MSPROJECT\MSPROJECT\RELEASE\JOYSTICK.OBJ|C:\USERS\NHS40227\DESKTOP\MSPROJECT\MSPROJECT\RELEASE\KEYBOARD.OBJ|C:\USERS\NHS40227\DESKTOP\MSPROJECT\MSPROJECT\RELEASE\LINEPOLYGON.OBJ|C:\USERS\NHS40227\DESKTOP\MSPROJECT\MSPROJECT\RELEASE\MAIN.OBJ|C:\USERS\NHS40227\DESKTOP\MSPROJECT\MSPROJECT\RELEASE\MAP.OBJ|C:\USERS\NHS40227\DESKTOP\MSPROJECT\MSPROJECT\RELEASE\METER.OBJ|C:\USERS\NHS40227\DESKTOP\MSPROJECT\MSPROJECT\RELEASE\MINIGAME.OBJ|C:\USERS\NHS40227\DESKTOP\MSPROJECT\MSPROJECT\RELEASE\MINIGAMEMANAGER.OBJ|C:\USERS\NHS40227\DESKTOP\MSPROJECT\MSPROJECT\RELEASE\MSAPP.OBJ|C:\USERS\NHS40227\DESKTOP\MSPROJECT\MSPROJECT\RELEASE\PILOT_EASY.OBJ|C:\USERS\NHS40227\DESKTOP\MSPROJECT\MSPROJECT\RELEASE\PLAYER.OBJ|C:\USERS\NHS40227\DESKTOP\MSPROJECT\MSPROJECT\RELEASE\POLYGON.OBJ|C:\USERS\NHS40227\DESKTOP\MSPROJECT\MSPROJECT\RELEASE\SCENE.OBJ|C:\USERS\NHS40227\DESKTOP\MSPROJECT\MSPROJECT\RELEASE\SPRITE.OBJ|C:\USERS\NHS40227\DESKTOP\MSPROJECT\MSPROJECT\RELEASE\STRTEXTURE.OBJ|C:\USERS\NHS40227\DESKTOP\MSPROJECT\MSPROJECT\RELEASE\SWORDSMITH_EASY.OBJ|C:\USERS\NHS40227\DESKTOP\MSPROJECT\MSPROJECT\RELEASE\TEXTBOX.OBJ|C:\USERS\NHS40227\DESKTOP\MSPROJECT\MSPROJECT\RELEASE\TITLESCENE.OBJ|C:\USERS\NHS40227\DESKTOP\MSPROJECT\MSPROJECT\RELEASE\TRAINDRIVER_EASY.OBJ|C:\USERS\NHS40227\DESKTOP\MSPROJECT\MSPROJECT\RELEASE\UNITMANAGER.OBJ
C:\WINDOWS\GLOBALIZATION\SORTING\SORTDEFAULT.NLS
C:\PROGRAM FILES (X86)\MICROSOFT SDKS\WINDOWS\V7.0A\LIB\KERNEL32.LIB
C:\PROGRAM FILES (X86)\MICROSOFT SDKS\WINDOWS\V7.0A\LIB\USER32.LIB
C:\PROGRAM FILES (X86)\MICROSOFT SDKS\WINDOWS\V7.0A\LIB\GDI32.LIB
C:\PROGRAM FILES (X86)\MICROSOFT SDKS\WINDOWS\V7.0A\LIB\WINSPOOL.LIB
C:\PROGRAM FILES (X86)\MICROSOFT SDKS\WINDOWS\V7.0A\LIB\COMDLG32.LIB
C:\PROGRAM FILES (X86)\MICROSOFT SDKS\WINDOWS\V7.0A\LIB\ADVAPI32.LIB
C:\PROGRAM FILES (X86)\MICROSOFT SDKS\WINDOWS\V7.0A\LIB\SHELL32.LIB
C:\PROGRAM FILES (X86)\MICROSOFT SDKS\WINDOWS\V7.0A\LIB\OLE32.LIB
C:\PROGRAM FILES (X86)\MICROSOFT SDKS\WINDOWS\V7.0A\LIB\OLEAUT32.LIB
C:\PROGRAM FILES (X86)\MICROSOFT SDKS\WINDOWS\V7.0A\LIB\UUID.LIB
C:\PROGRAM FILES (X86)\MICROSOFT SDKS\WINDOWS\V7.0A\LIB\ODBC32.LIB
C:\PROGRAM FILES (X86)\MICROSOFT SDKS\WINDOWS\V7.0A\LIB\ODBCCP32.LIB
C:\USERS\NHS40227\DESKTOP\MSPROJECT\MSPROJECT\RELEASE\APP.OBJ
C:\USERS\NHS40227\DESKTOP\MSPROJECT\MSPROJECT\RELEASE\BALLOON.OBJ
C:\USERS\NHS40227\DESKTOP\MSPROJECT\MSPROJECT\RELEASE\CAMERA.OBJ
C:\USERS\NHS40227\DESKTOP\MSPROJECT\MSPROJECT\RELEASE\ENEMY.OBJ
C:\USERS\NHS40227\DESKTOP\MSPROJECT\MSPROJECT\RELEASE\JOYSTICK.OBJ
C:\USERS\NHS40227\DESKTOP\MSPROJECT\MSPROJECT\RELEASE\LINEPOLYGON.OBJ
C:\USERS\NHS40227\DESKTOP\MSPROJECT\MSPROJECT\RELEASE\METER.OBJ
C:\USERS\NHS40227\DESKTOP\MSPROJECT\MSPROJECT\RELEASE\MINIGAME.OBJ
C:\USERS\NHS40227\DESKTOP\MSPROJECT\MSPROJECT\RELEASE\MINIGAMEMANAGER.OBJ
C:\USERS\NHS40227\DESKTOP\MSPROJECT\MSPROJECT\RELEASE\PILOT_EASY.OBJ
C:\USERS\NHS40227\DESKTOP\MSPROJECT\MSPROJECT\RELEASE\PLAYER.OBJ
C:\USERS\NHS40227\DESKTOP\MSPROJECT\MSPROJECT\RELEASE\STRTEXTURE.OBJ
C:\USERS\NHS40227\DESKTOP\MSPROJECT\MSPROJECT\RELEASE\SWORDSMITH_EASY.OBJ
C:\USERS\NHS40227\DESKTOP\MSPROJECT\MSPROJECT\RELEASE\TEXTBOX.OBJ
C:\USERS\NHS40227\DESKTOP\MSPROJECT\MSPROJECT\RELEASE\TRAINDRIVER_EASY.OBJ
C:\USERS\NHS40227\DESKTOP\MSPROJECT\MSPROJECT\RELEASE\GAMESCENE.OBJ
C:\USERS\NHS40227\DESKTOP\MSPROJECT\MSPROJECT\RELEASE\GRID.OBJ
C:\USERS\NHS40227\DESKTOP\MSPROJECT\MSPROJECT\RELEASE\KEYBOARD.OBJ
C:\USERS\NHS40227\DESKTOP\MSPROJECT\MSPROJECT\RELEASE\MAIN.OBJ
C:\USERS\NHS40227\DESKTOP\MSPROJECT\MSPROJECT\RELEASE\MAP.OBJ
C:\USERS\NHS40227\DESKTOP\MSPROJECT\MSPROJECT\RELEASE\MSAPP.OBJ
C:\USERS\NHS40227\DESKTOP\MSPROJECT\MSPROJECT\RELEASE\POLYGON.OBJ
C:\USERS\NHS40227\DESKTOP\MSPROJECT\MSPROJECT\RELEASE\SCENE.OBJ
C:\USERS\NHS40227\DESKTOP\MSPROJECT\MSPROJECT\RELEASE\SPRITE.OBJ
C:\USERS\NHS40227\DESKTOP\MSPROJECT\MSPROJECT\RELEASE\TITLESCENE.OBJ
C:\USERS\NHS40227\DESKTOP\MSPROJECT\MSPROJECT\RELEASE\UNITMANAGER.OBJ
C:\PROGRAM FILES (X86)\MICROSOFT VISUAL STUDIO 10.0\VC\BIN\C2.DLL
C:\PROGRAM FILES (X86)\MICROSOFT VISUAL STUDIO 10.0\VC\LIB\LIBCPMT.LIB
C:\PROGRAM FILES (X86)\MICROSOFT DIRECTX SDK (JUNE 2010)\LIB\X86\D3D9.LIB
C:\PROGRAM FILES (X86)\MICROSOFT DIRECTX SDK (JUNE 2010)\LIB\X86\D3DX9.LIB
C:\PROGRAM FILES (X86)\MICROSOFT SDKS\WINDOWS\V7.0A\LIB\WINMM.LIB
C:\PROGRAM FILES (X86)\MICROSOFT DIRECTX SDK (JUNE 2010)\LIB\X86\DINPUT8.LIB
C:\PROGRAM FILES (X86)\MICROSOFT DIRECTX SDK (JUNE 2010)\LIB\X86\DXGUID.LIB
C:\PROGRAM FILES (X86)\MICROSOFT VISUAL STUDIO 10.0\VC\LIB\LIBCMT.LIB
C:\PROGRAM FILES (X86)\MICROSOFT VISUAL STUDIO 10.0\VC\LIB\OLDNAMES.LIB
C:\PROGRAM FILES (X86)\MICROSOFT VISUAL STUDIO 10.0\VC\BIN\1041\LINKUI.DLL
C:\WINDOWS\SYSTEM32\TZRES.DLL
